{
    "results":[
        {
            "id":253759,
            "adult":false
        },
        {
            "id":243914,
            "adult":false
        },
        {
            "id":14324,
            "adult":false
        },
        {
            "id":253760,
            "adult":false
        },
        {
            "id":164159,
            "adult":false
        },
        {
            "id":253761,
            "adult":false
        },
        {
            "id":10315,
            "adult":false
        },
        {
            "id":44942,
            "adult":false
        },
        {
            "id":50457,
            "adult":false
        },
        {
            "id":15037,
            "adult":false
        },
        {
            "id":11926,
            "adult":false
        },
        {
            "id":22798,
            "adult":false
        },
        {
            "id":44215,
            "adult":false
        },
        {
            "id":93053,
            "adult":false
        },
        {
            "id":53505,
            "adult":false
        },
        {
            "id":122662,
            "adult":false
        },
        {
            "id":253762,
            "adult":false
        },
        {
            "id":19850,
            "adult":false
        },
        {
            "id":47088,
            "adult":false
        },
        {
            "id":17680,
            "adult":false
        },
        {
            "id":15285,
            "adult":false
        },
        {
            "id":40722,
            "adult":false
        },
        {
            "id":43943,
            "adult":false
        },
        {
            "id":33542,
            "adult":false
        },
        {
            "id":251865,
            "adult":false
        },
        {
            "id":46837,
            "adult":false
        },
        {
            "id":253763,
            "adult":false
        },
        {
            "id":47407,
            "adult":false
        },
        {
            "id":7839,
            "adult":false
        },
        {
            "id":11831,
            "adult":false
        },
        {
            "id":20618,
            "adult":false
        },
        {
            "id":5548,
            "adult":false
        },
        {
            "id":50687,
            "adult":false
        },
        {
            "id":205724,
            "adult":false
        },
        {
            "id":253764,
            "adult":false
        },
        {
            "id":603,
            "adult":false
        },
        {
            "id":605,
            "adult":false
        },
        {
            "id":253765,
            "adult":false
        },
        {
            "id":62177,
            "adult":false
        },
        {
            "id":253766,
            "adult":false
        },
        {
            "id":253767,
            "adult":false
        },
        {
            "id":253768,
            "adult":false
        },
        {
            "id":253276,
            "adult":false
        },
        {
            "id":253769,
            "adult":false
        },
        {
            "id":253770,
            "adult":false
        },
        {
            "id":253771,
            "adult":false
        },
        {
            "id":6973,
            "adult":false
        },
        {
            "id":389,
            "adult":false
        },
        {
            "id":253772,
            "adult":false
        },
        {
            "id":77459,
            "adult":false
        },
        {
            "id":253773,
            "adult":false
        },
        {
            "id":53913,
            "adult":false
        },
        {
            "id":253714,
            "adult":false
        },
        {
            "id":253774,
            "adult":false
        },
        {
            "id":253775,
            "adult":false
        },
        {
            "id":253776,
            "adult":false
        },
        {
            "id":253511,
            "adult":false
        },
        {
            "id":253777,
            "adult":false
        },
        {
            "id":10378,
            "adult":false
        },
        {
            "id":100402,
            "adult":false
        },
        {
            "id":253778,
            "adult":false
        },
        {
            "id":253779,
            "adult":false
        },
        {
            "id":253780,
            "adult":false
        },
        {
            "id":253781,
            "adult":false
        },
        {
            "id":57619,
            "adult":false
        },
        {
            "id":10013,
            "adult":false
        },
        {
            "id":25566,
            "adult":false
        },
        {
            "id":253782,
            "adult":false
        },
        {
            "id":126838,
            "adult":false
        },
        {
            "id":109513,
            "adult":false
        },
        {
            "id":253783,
            "adult":false
        },
        {
            "id":16632,
            "adult":false
        },
        {
            "id":51730,
            "adult":false
        },
        {
            "id":133805,
            "adult":false
        },
        {
            "id":253784,
            "adult":false
        },
        {
            "id":152747,
            "adult":false
        },
        {
            "id":204709,
            "adult":false
        },
        {
            "id":126755,
            "adult":false
        },
        {
            "id":9924,
            "adult":false
        },
        {
            "id":58559,
            "adult":false
        },
        {
            "id":120932,
            "adult":false
        },
        {
            "id":41428,
            "adult":false
        },
        {
            "id":200713,
            "adult":false
        },
        {
            "id":157370,
            "adult":false
        },
        {
            "id":97199,
            "adult":false
        },
        {
            "id":157841,
            "adult":false
        },
        {
            "id":240745,
            "adult":false
        },
        {
            "id":84659,
            "adult":false
        },
        {
            "id":253785,
            "adult":false
        },
        {
            "id":36810,
            "adult":false
        },
        {
            "id":250482,
            "adult":false
        },
        {
            "id":17979,
            "adult":false
        },
        {
            "id":253786,
            "adult":false
        },
        {
            "id":6575,
            "adult":false
        },
        {
            "id":122906,
            "adult":false
        },
        {
            "id":80797,
            "adult":false
        },
        {
            "id":166076,
            "adult":false
        },
        {
            "id":15301,
            "adult":false
        },
        {
            "id":50620,
            "adult":false
        },
        {
            "id":50619,
            "adult":false
        }
    ],
    "page":1,
    "total_pages":12,
    "total_results":1151
}